"Data (mm-dd)","< 1 ano","1-4 anos","5-14 anos","15-24 anos","25-34 anos","35-44 anos","45-54 anos","55-64 anos","65-74 anos","> 75 anos","Desconhecido"
"Jan-01","1","0","0","0","6","3","13","19","47","286","0"
"Jan-02","0","0","1","2","3","5","14","25","62","268","0"
"Jan-03","0","0","1","2","2","3","10","27","50","279","0"
"Jan-04","4","0","0","1","6","4","16","31","45","256","0"
"Jan-05","0","1","0","2","0","5","15","25","49","236","0"
"Jan-06","0","0","1","2","1","2","13","32","55","257","1"
"Jan-07","0","0","2","0","3","5","11","33","60","269","0"
"Jan-08","0","1","0","2","1","5","12","36","44","282","0"
"Jan-09","2","0","0","0","0","4","14","29","53","278","0"
"Jan-10","1","0","0","1","1","2","15","28","46","281","1"
"Jan-11","1","0","0","0","2","5","11","32","62","265","0"
"Jan-12","0","0","1","1","2","3","12","28","56","301","1"
"Jan-13","1","0","0","0","1","2","16","39","56","290","0"
"Jan-14","0","1","0","2","3","6","11","36","54","283","1"
"Jan-15","2","0","0","2","2","3","16","26","54","321","0"
"Jan-16","0","0","0","0","1","4","8","29","42","304","0"
"Jan-17","0","0","0","0","0","7","13","33","44","291","0"
"Jan-18","0","0","1","1","1","6","16","27","63","271","1"
"Jan-19","2","0","0","0","2","4","15","28","54","277","0"
"Jan-20","0","0","0","1","2","4","12","22","56","277","0"
"Jan-21","1","0","0","1","1","4","13","20","45","270","0"
"Jan-22","0","0","0","0","1","1","13","21","72","268","1"
"Jan-23","1","0","0","0","1","5","14","32","49","300","0"
"Jan-24","0","1","0","1","0","2","11","31","56","278","0"
"Jan-25","0","0","1","1","1","3","14","37","68","288","0"
"Jan-26","0","0","1","1","1","5","11","35","44","274","1"
"Jan-27","0","1","0","0","5","7","16","35","50","297","1"
"Jan-28","3","0","0","1","2","4","12","20","69","262","0"
"Jan-29","1","0","0","4","1","6","13","25","68","248","1"
"Jan-30","1","0","0","1","0","1","12","30","53","279","1"
"Jan-31","0","1","0","0","3","1","13","35","58","281","0"
"Fev-01","1","0","0","2","3","4","15","14","59","283","0"
"Fev-02","1","0","0","1","2","4","8","26","65","274","2"
"Fev-03","2","0","0","0","2","2","18","39","43","289","0"
"Fev-04","0","0","0","0","2","3","13","25","55","280","0"
"Fev-05","0","0","0","1","2","7","9","28","46","263","1"
"Fev-06","0","1","0","1","1","5","13","24","44","255","0"
"Fev-07","2","0","0","0","1","7","13","29","36","261","0"
"Fev-08","2","0","1","1","1","6","14","30","49","233","0"
"Fev-09","0","0","0","0","1","6","3","21","40","257","1"
"Fev-10","1","0","1","0","2","3","9","39","36","240","0"
"Fev-11","2","0","1","0","2","2","8","28","41","240","0"
"Fev-12","1","1","0","1","1","4","11","21","62","234","0"
"Fev-13","1","0","0","1","2","2","10","21","51","245","0"
"Fev-14","1","0","0","0","1","2","11","32","42","226","1"
"Fev-15","0","0","0","0","2","5","14","26","46","234","0"
"Fev-16","1","0","0","0","0","1","7","31","38","228","0"
"Fev-17","0","0","0","0","1","2","16","26","46","249","0"
"Fev-18","0","0","1","0","3","3","9","26","43","213","0"
"Fev-19","2","1","0","0","2","2","11","24","53","234","0"
"Fev-20","1","0","1","1","3","3","10","25","38","227","0"
"Fev-21","0","0","0","2","1","4","17","25","49","233","0"
"Fev-22","0","0","0","0","0","3","5","25","40","242","0"
"Fev-23","0","0","0","1","0","6","8","26","36","235","1"
"Fev-24","0","0","0","0","1","1","7","29","38","220","0"
"Fev-25","0","0","0","1","0","4","11","24","46","227","1"
"Fev-26","1","0","0","0","1","3","11","24","50","215","1"
"Fev-27","0","1","0","1","2","4","13","31","47","249","0"
"Fev-28","1","0","0","1","1","2","11","22","36","223","0"
"Fev-29","0","0","0","0","0","2","16","13","38","224","0"
"Mar-01","1","1","0","0","1","3","9","14","44","248","0"
"Mar-02","0","0","0","2","2","1","6","23","47","218","0"
"Mar-03","0","0","0","2","0","5","8","18","42","235","0"
"Mar-04","1","0","0","1","1","2","11","25","41","204","0"
"Mar-05","0","0","0","2","1","4","7","24","50","210","0"
"Mar-06","0","1","0","1","2","3","7","20","33","217","0"
"Mar-07","0","0","0","1","1","1","8","23","45","205","0"
"Mar-08","0","0","0","0","1","2","7","20","35","220","0"
"Mar-09","0","0","0","1","4","3","19","23","44","231","0"
"Mar-10","3","0","0","0","1","4","9","37","36","238","0"
"Mar-11","1","0","0","0","1","3","11","31","54","239","0"
"Mar-12","1","0","0","1","2","2","8","25","45","249","0"
"Mar-13","0","0","0","0","0","5","13","26","43","231","0"
"Mar-14","0","0","0","0","2","2","10","25","56","224","0"
"Mar-15","0","0","0","0","0","3","14","20","37","218","0"
"Mar-16","0","0","1","0","1","2","16","21","43","252","0"
"Mar-17","0","0","0","1","3","6","16","17","44","247","0"
"Mar-18","0","0","0","1","0","4","7","20","45","236","0"
"Mar-19","0","0","0","1","0","3","10","20","59","262","0"
"Mar-20","0","0","0","0","0","2","9","23","55","257","0"
"Mar-21","1","0","0","0","0","5","11","21","45","236","0"
"Mar-22","1","0","0","0","2","1","9","23","38","248","0"
"Mar-23","0","0","0","0","1","1","17","17","45","204","0"
"Mar-24","0","0","0","0","1","0","1","2","1","12","0"